{
   "skin_color": [
      {
         "left": [206,177,153],
         "mid": [205,168,152],
         "right": [216,183,169],
         "sync":{
            "lip_color": {
               "left": [130,82,66],
               "mid": [],
               "right": "skin_color_current"
            }
         }
      },
      {
         "left": [198,158,131],
         "mid": [198,151,131],
         "right": [206,158,144],
         "sync":{
            "lip_color": {
               "left": [130,82,66],
               "mid": [],
               "right": "skin_color_current"
            }
         }
      },
      {
         "left": [198,153,117],
         "mid": [198,146,117],
         "right": [191,130,104],
         "sync":{
            "lip_color": {
               "left": [130,82,66],
               "mid": [],
               "right": "skin_color_current"
            }
         }
      },
      {
         "left": [153,106,73],
         "mid": [145,100,77],
         "right": [171,112,95],
         "sync":{
            "lip_color": {
               "left": [99,52,39],
               "mid": [],
               "right": "skin_color_current"
            }
         }
      },
      {
         "left": [141,102,72],
         "mid": [122,78,58],
         "right": [120,70,47],
         "sync":{
            "lip_color": {
               "left": [99,52,39],
               "mid": [],
               "right": "skin_color_current"
            }
         }
      },
      {
         "left": [82,65,42],
         "mid": [82,55,42],
         "right": [82,48,42],
         "sync":{
            "lip_color": {
               "left": [47,25,18],
               "mid": [],
               "right": "skin_color_current"
            }
         }
      },
      {
         "left": [53,46,32],
         "mid": [53,38,32],
         "right": [54,32,32],
         "sync":{
            "lip_color": {
               "left": [35,19,14],
               "mid": [],
               "right": "skin_color_current"
            }
         }
      },
      {
         "left": [100,33,14],
         "mid": [172,60,43],
         "right": [214,102,84],
         "sync":{
            "lip_color": {
               "left": [70,24,24],
               "mid": [],
               "right": "skin_color_current"
            }
         }
      },
      {
         "left": [152,97,0],
         "mid": [210,162,77],
         "right": [207,176,101],
         "sync":{
            "lip_color": {
               "left": [109,72,9],
               "mid": [],
               "right": "skin_color_current"
            }
         }
      },
      {
         "left": [46,69,37],
         "mid": [87,137,66],
         "right": [114,161,94],
         "sync":{
            "lip_color": {
               "left": [54,62,50],
               "mid": [],
               "right": "skin_color_current"
            }
         }
      },
      {
         "left": [53,55,92],
         "mid": [67,72,160],
         "right": [89,128,198],
         "sync":{
            "lip_color": {
               "left": [53,55,92],
               "mid": [],
               "right": "skin_color_current"
            }
         }
      },
      {
         "left": [55,7,71],
         "mid": [88,34,107],
         "right": [162,94,196],
         "sync":{
            "lip_color": {
               "left": [44,21,60],
               "mid": [],
               "right": "skin_color_current"
            }
         }
      }
   ],
   "hair_color": [
      {
         "left": [54,54,54],
         "mid": [70,70,70],
         "right": [92,90,90],
         "sync":{
            "eyebrow_color": {
               "left": [54,54,54],
               "mid": [70,70,70],
               "right": [92,90,90],
               "sync_lerp": true
            },
            "beard_color": {
               "left": [54,54,54],
               "mid": [70,70,70],
               "right": [92,90,90],
               "sync_lerp": true
            }
         }
      },
      {
         "left": [79,61,52],
         "mid": [100,80,63],
         "right": [136,114,103],
         "sync":{
            "eyebrow_color": {
               "left": [79,61,52],
               "mid": [100,80,63],
               "right": [136,114,103],
               "sync_lerp": true
            },
            "beard_color": {
               "left": [79,61,52],
               "mid": [100,80,63],
               "right": [136,114,103],
               "sync_lerp": true
            }
         }
      },
      {
         "left": [91,77,49],
         "mid": [122,98,49],
         "right": [177,156,113],
         "sync":{
            "eyebrow_color": {
               "left": [91,77,49],
               "mid": [122,98,49],
               "right": [177,156,113],
               "sync_lerp": true
            },
            "beard_color": {
               "left": [91,77,49],
               "mid": [122,98,49],
               "right": [177,156,113],
               "sync_lerp": true
            }
         }
      },
      {
         "left": [102,55,36],
         "mid": [142,63,47],
         "right": [205,116,90],
         "sync":{
            "eyebrow_color": {
               "left": [102,55,36],
               "mid": [142,63,47],
               "right": [205,116,90],
               "sync_lerp": true
            },
            "beard_color": {
               "left": [102,55,36],
               "mid": [142,63,47],
               "right": [205,116,90],
               "sync_lerp": true
            }
         }
      },
      {
         "left": [143,121,88],
         "mid": [251,204,141],
         "right": [255,227,189],
         "sync":{
            "eyebrow_color": {
               "left": [143,121,88],
               "mid": [251,204,141],
               "right": [255,227,189],
               "sync_lerp": true
            },
            "beard_color": {
               "left": [143,121,88],
               "mid": [251,204,141],
               "right": [255,227,189],
               "sync_lerp": true
            }
         }
      },
      {
         "left": [142,131,119],
         "mid": [193,180,171],
         "right": [255,238,226],
         "sync":{
            "eyebrow_color": {
               "left": [142,131,119],
               "mid": [193,180,171],
               "right": [255,238,226],
               "sync_lerp": true
            },
            "beard_color": {
               "left": [142,131,119],
               "mid": [193,180,171],
               "right": [255,238,226],
               "sync_lerp": true
            }
         }
      },
      {
         "left": [120,117,114],
         "mid": [190,181,181],
         "right": [230,217,217],
         "sync":{
            "eyebrow_color": {
               "left": [120,117,114],
               "mid": [190,181,181],
               "right": [230,217,217],
               "sync_lerp": true
            },
            "beard_color": {
               "left": [120,117,114],
               "mid": [190,181,181],
               "right": [230,217,217],
               "sync_lerp": true
            }
         }
      },
      {
         "left": [134,17,0],
         "mid": [203,40,19],
         "right": [232,80,61],
         "sync":{
            "eyebrow_color": {
               "left": [134,17,0],
               "mid": [203,40,19],
               "right": [232,80,61],
               "sync_lerp": true
            },
            "beard_color": {
               "left": [134,17,0],
               "mid": [203,40,19],
               "right": [232,80,61],
               "sync_lerp": true
            }
         }
      },
      {
         "left": [169,61,9],
         "mid": [231,104,42],
         "right": [254,147,74],
         "sync":{
            "eyebrow_color": {
               "left": [169,61,9],
               "mid": [231,104,42],
               "right": [254,147,74],
               "sync_lerp": true
            },
            "beard_color": {
               "left": [169,61,9],
               "mid": [231,104,42],
               "right": [254,147,74],
               "sync_lerp": true
            }
         }
      },
      {
         "left": [255,207,1],
         "mid": [255,222,90],
         "right": [255,238,114],
         "sync":{
            "eyebrow_color": {
               "left": [255,207,1],
               "mid": [255,222,90],
               "right": [255,238,114],
               "sync_lerp": true
            },
            "beard_color": {
               "left": [255,207,1],
               "mid": [255,222,90],
               "right": [255,238,114],
               "sync_lerp": true
            }
         }
      },
      {
         "left": [102,135,49],
         "mid": [136,174,75],
         "right": [155,191,97],
         "sync":{
            "eyebrow_color": {
               "left": [102,135,49],
               "mid": [136,174,75],
               "right": [155,191,97],
               "sync_lerp": true
            },
            "beard_color": {
               "left": [102,135,49],
               "mid": [136,174,75],
               "right": [155,191,97],
               "sync_lerp": true
            }
         }
      },
      {
         "left": [45,72,131],
         "mid": [75,111,192],
         "right": [107,142,221],
         "sync":{
            "eyebrow_color": {
               "left": [45,72,131],
               "mid": [75,111,192],
               "right": [107,142,221],
               "sync_lerp": true
            },
            "beard_color": {
               "left": [45,72,131],
               "mid": [75,111,192],
               "right": [107,142,221],
               "sync_lerp": true
            }
         }
      },
      {
         "left": [93,59,130],
         "mid": [133,97,177],
         "right": [185,135,197],
         "sync":{
            "eyebrow_color": {
               "left": [93,59,130],
               "mid": [133,97,177],
               "right": [185,135,197],
               "sync_lerp": true
            },
            "beard_color": {
               "left": [93,59,130],
               "mid": [133,97,177],
               "right": [185,135,197],
               "sync_lerp": true
            }
         }
      },
      {
         "left": [152,52,70],
         "mid": [203,66,90],
         "right": [198,147,151],
         "sync":{
            "eyebrow_color": {
               "left": [152,52,70],
               "mid": [203,66,90],
               "right": [198,147,151],
               "sync_lerp": true
            },
            "beard_color": {
               "left": [152,52,70],
               "mid": [203,66,90],
               "right": [198,147,151],
               "sync_lerp": true
            }
         }
      }
   ],
   "hair_ribbon_color": [
      {
         "left": [120,117,114],
         "mid": [190,181,181],
         "right": [230,217,217]
      },
      {
         "left": [54,54,54],
         "mid": [70,70,70],
         "right": [92,90,90]
      },
      {
         "left": [79,61,52],
         "mid": [100,80,63],
         "right": [136,114,103]
      },
      {
         "left": [91,77,49],
         "mid": [122,98,49],
         "right": [177,156,113]
      },
      {
         "left": [102,55,36],
         "mid": [142,63,47],
         "right": [205,116,90]
      },
      {
         "left": [143,121,88],
         "mid": [251,204,141],
         "right": [255,227,189]
      },
      {
         "left": [142,131,119],
         "mid": [193,180,171],
         "right": [255,238,226]
      },
      {
         "left": [134,17,0],
         "mid": [203,40,19],
         "right": [232,80,61]
      },
      {
         "left": [169,61,9],
         "mid": [231,104,42],
         "right": [254,147,74]
      },
      {
         "left": [255,207,1],
         "mid": [255,222,90],
         "right": [255,238,114]
      },
      {
         "left": [102,135,49],
         "mid": [136,174,75],
         "right": [155,191,97]
      },
      {
         "left": [45,72,131],
         "mid": [75,111,192],
         "right": [107,142,221]
      },
      {
         "left": [93,59,130],
         "mid": [133,97,177],
         "right": [185,135,197]
      },
      {
         "left": [152,52,70],
         "mid": [203,66,90],
         "right": [198,147,151]
      }
   ],
   "lip_color": [
      {
         "left": [112,54,48],
         "mid": [145,91,84],
         "right": [173,126,116]
      },
      {
         "left": [148,49,36],
         "mid": [176,88,84],
         "right": [194,115,105]
      },
      {
         "left": [126,44,74],
         "mid": [191,90,105],
         "right": [211,139,150]
      },
      {
         "left": [112,2,2],
         "mid": [178,26,26],
         "right": [203,114,114]
      },
      {
         "left": [84,24,46],
         "mid": [126,57,83],
         "right": [176,124,143]
      },
      {
         "left": [151,49,86],
         "mid": [221,101,145],
         "right": [222,147,175]
      },
      {
         "left": [160,74,33],
         "mid": [201,111,68],
         "right": [218,136,97]
      },

      {
         "left": [92,19,14],
         "mid": [172,60,43],
         "right": [214,102,84]
      },
      {
         "left": [168,98,51],
         "mid": [201,144,14],
         "right": [228,181,72]
      },
      {
         "left": [21,47,18],
         "mid": [87,137,66],
         "right": [114,161,94]
      },
      {
         "left": [34,34,60],
         "mid": [67,72,160],
         "right": [37,110,157]
      },
      {
         "left": [69,13,85],
         "mid": [88,34,107],
         "right": [162,94,196]
      },
      {
         "left": [0,0,0],
         "mid": [65,64,64],
         "right": [144,144,144]
      },
      {
         "left": [129,115,111],
         "mid": [179,159,154],
         "right": [224,204,204]
      }
   ],
   "glass_frame_color": [
      {
         "left": [30,28,28],
         "mid": [70,70,70],
         "right": [114,114,114]
      },
      {
         "left": [79,61,52],
         "mid": [100,80,63],
         "right": [136,114,103]
      },
      {
         "left": [91,77,49],
         "mid": [122,98,49],
         "right": [177,156,113]
      },
      {
         "left": [102,55,36],
         "mid": [142,63,47],
         "right": [205,116,90]
      },
      {
         "left": [143,121,88],
         "mid": [251,204,141],
         "right": [255,227,189]
      },
      {
         "left": [142,131,119],
         "mid": [193,180,171],
         "right": [255,238,226]
      },
      {
         "left": [120,117,114],
         "mid": [190,181,181],
         "right": [230,217,217]
      },
      {
         "left": [134,17,0],
         "mid": [203,40,19],
         "right": [232,80,61]
      },
      {
         "left": [169,61,9],
         "mid": [231,104,42],
         "right": [254,147,74]
      },
      {
         "left": [255,207,1],
         "mid": [255,222,90],
         "right": [255,238,114]
      },
      {
         "left": [102,135,49],
         "mid": [136,174,75],
         "right": [155,191,97]
      },
      {
         "left": [45,72,131],
         "mid": [75,111,192],
         "right": [107,142,221]
      },
      {
         "left": [93,59,130],
         "mid": [133,97,177],
         "right": [185,135,197]
      },
      {
         "left": [105,22,36],
         "mid": [203,60,90],
         "right": [198,147,151]
      }
   ],
   "glass_color": [
      {
         "left": [251,251,251,230],
         "mid": [251,251,251,128],
         "right": [251,251,251,26]
      },
      {
         "left": [190,181,181,230],
         "mid": [190,181,181,128],
         "right": [190,181,181,26]
      },
      {
         "left": [70,70,70,230],
         "mid": [70,70,70,128],
         "right": [70,70,70,26]
      },
      {
         "left": [107,88,79,230],
         "mid": [107,88,79,128],
         "right": [107,88,79,26]
      },
      {
         "left": [122,98,49,230],
         "mid": [122,98,49,128],
         "right": [122,98,49,26]
      },
      {
         "left": [215,26,26,230],
         "mid": [215,26,26,128],
         "right": [215,26,26,26]
      },
      {
         "left": [255,154,0,230],
         "mid": [255,154,0,128],
         "right": [255,154,0,26]
      },
      {
         "left": [255,222,90,230],
         "mid": [255,222,90,128],
         "right": [255,222,90,26]
      },
      {
         "left": [79,255,16,230],
         "mid": [79,255,16,128],
         "right": [79,255,16,26]
      },
      {
         "left": [0,152,255,230],
         "mid": [0,152,255,128],
         "right": [0,152,255,26]
      },
      {
         "left": [114,23,226,230],
         "mid": [114,23,226,128],
         "right": [114,23,226,26]
      },
      {
         "left": [215,26,112,230],
         "mid": [215,26,112,128],
         "right": [215,26,112,26]
      }
   ],
   "hat_color": [
      {
         "left": [30,28,28],
         "mid": [70,70,70],
         "right": [114,114,114]
      },
      {
         "left": [79,61,52],
         "mid": [100,80,63],
         "right": [136,114,103]
      },
      {
         "left": [91,77,49],
         "mid": [122,98,49],
         "right": [177,156,113]
      },
      {
         "left": [102,55,36],
         "mid": [142,63,47],
         "right": [205,116,90]
      },
      {
         "left": [143,121,88],
         "mid": [251,204,141],
         "right": [255,227,189]
      },
      {
         "left": [142,131,119],
         "mid": [193,180,171],
         "right": [255,238,226]
      },
      {
         "left": [120,117,114],
         "mid": [190,181,181],
         "right": [230,217,217]
      },
      {
         "left": [134,17,0],
         "mid": [203,40,19],
         "right": [232,80,61]
      },
      {
         "left": [169,61,9],
         "mid": [231,104,42],
         "right": [254,147,74]
      },
      {
         "left": [255,207,1],
         "mid": [255,222,90],
         "right": [255,238,114]
      },
      {
         "left": [102,135,49],
         "mid": [136,174,75],
         "right": [155,191,97]
      },
      {
         "left": [45,72,131],
         "mid": [75,111,192],
         "right": [107,142,221]
      },
      {
         "left": [93,59,130],
         "mid": [133,97,177],
         "right": [185,135,197]
      },
      {
         "left": [105,22,36],
         "mid": [203,66,90],
         "right": [198,147,151]
      }
   ],
   "iris_color": [
      {
         "left": [108,85,70],
         "mid": [141,113,102],
         "right": [211,178,156]
      },
      {
         "left": [54,54,54],
         "mid": [124,124,124],
         "right": [190,190,190]
      },
      {
         "left": [127,84,29],
         "mid": [165,133,89],
         "right": [214,191,159]
      },
      {
         "left": [101,127,147],
         "mid": [142,169,191],
         "right": [172,184,193]
      },
      {
         "left": [110,114,89],
         "mid": [157,160,141],
         "right": [203,209,171]
      },
      {
         "left": [94,74,133],
         "mid": [127,123,177],
         "right": [179,177,204]
      },

      {
         "left": [147,23,6],
         "mid": [204,72,54],
         "right": [225,115,100]
      },
      {
         "left": [169,61,9],
         "mid": [231,104,42],
         "right": [254,147,74]
      },
      {
         "left": [255,207,1],
         "mid": [255,222,90],
         "right": [255,238,114]
      },
      {
         "left": [92,113,57],
         "mid": [136,174,75],
         "right": [174,210,117]
      },

      {
         "left": [45,72,131],
         "mid": [75,111,192],
         "right": [107,142,221]
      },
      {
         "left": [93,59,130],
         "mid": [133,97,177],
         "right": [185,135,197]
      },
      {
         "left": [105,22,36],
         "mid": [203,66,90],
         "right": [198,147,151]
      }
   ],
   "beard_color": [
      {
         "left": [30,28,28],
         "mid": [70,70,70],
         "right": [114,114,114]
      },
      {
         "left": [79,61,52],
         "mid": [100,80,63],
         "right": [136,114,103]
      },
      {
         "left": [91,77,49],
         "mid": [122,98,49],
         "right": [177,156,113]
      },
      {
         "left": [102,55,36],
         "mid": [142,63,47],
         "right": [205,116,90]
      },
      {
         "left": [143,121,88],
         "mid": [251,204,141],
         "right": [255,227,189]
      },
      {
         "left": [142,131,119],
         "mid": [193,180,171],
         "right": [255,238,226]
      },
      {
         "left": [120,117,114],
         "mid": [190,181,181],
         "right": [230,217,217]
      },
      {
         "left": [134,17,0],
         "mid": [203,40,19],
         "right": [232,80,61]
      },
      {
         "left": [169,61,9],
         "mid": [231,104,42],
         "right": [254,147,74]
      },
      {
         "left": [255,207,1],
         "mid": [255,222,90],
         "right": [255,238,114]
      },
      {
         "left": [102,135,49],
         "mid": [136,174,75],
         "right": [155,191,97]
      },
      {
         "left": [45,72,131],
         "mid": [75,111,192],
         "right": [107,142,221]
      },
      {
         "left": [93,59,130],
         "mid": [133,97,177],
         "right": [185,135,197]
      },
      {
         "left": [105,22,36],
         "mid": [203,66,90],
         "right": [198,147,151]
      }
   ],
   "eyebrow_color": [
      {
         "left": [30,28,28],
         "mid": [70,70,70],
         "right": [114,114,114]
      },
      {
         "left": [79,61,52],
         "mid": [100,80,63],
         "right": [136,114,103]
      },
      {
         "left": [91,77,49],
         "mid": [122,98,49],
         "right": [177,156,113]
      },
      {
         "left": [102,55,36],
         "mid": [142,63,47],
         "right": [205,116,90]
      },
      {
         "left": [143,121,88],
         "mid": [251,204,141],
         "right": [255,227,189]
      },
      {
         "left": [142,131,119],
         "mid": [193,180,171],
         "right": [255,238,226]
      },
      {
         "left": [120,117,114],
         "mid": [190,181,181],
         "right": [230,217,217]
      },
      {
         "left": [134,17,0],
         "mid": [203,40,19],
         "right": [232,80,61]
      },
      {
         "left": [169,61,9],
         "mid": [231,104,42],
         "right": [254,147,74]
      },
      {
         "left": [255,207,1],
         "mid": [255,222,90],
         "right": [255,238,114]
      },
      {
         "left": [102,135,49],
         "mid": [136,174,75],
         "right": [155,191,97]
      },
      {
         "left": [45,72,131],
         "mid": [75,111,192],
         "right": [107,142,221]
      },
      {
         "left": [93,59,130],
         "mid": [133,97,177],
         "right": [185,135,197]
      },
      {
         "left": [105,22,36],
         "mid": [203,66,90],
         "right": [198,147,151]
      }
   ],
   "earring_color_L": [
      {
         "left": [30,28,28],
         "mid": [43,34,34],
         "right": [53,43,43]
      },
      {
         "left": [54,54,54],
         "mid": [70,70,70],
         "right": [92,90,90]
      },
      {
         "left": [79,61,52],
         "mid": [107,88,79],
         "right": [136,114,103]
      },
      {
         "left": [120,117,114],
         "mid": [190,181,181],
         "right": [230,217,217]
      },
      {
         "left": [143,121,88],
         "mid": [251,204,141],
         "right": [255,227,189]
      },
      {
         "left": [107,21,10],
         "mid": [194,52,33],
         "right": [247,107,88]
      },
      {
         "left": [158,118,5],
         "mid": [230,173,8],
         "right": [255,222,130]
      },
      {
         "left": [70,102,19],
         "mid": [139,200,40],
         "right": [215,255,152]
      },
      {
         "left": [20,66,168],
         "mid": [38,96,227],
         "right": [176,200,252]
      },
      {
         "left": [67,23,122],
         "mid": [111,30,210],
         "right": [188,141,244]
      },
      {
         "left": [133,34,67],
         "mid": [223,61,114],
         "right": [255,161,192]
      }
   ],
   "earring_color_R": [
      {
         "left": [30,28,28],
         "mid": [43,34,34],
         "right": [53,43,43]
      },
      {
         "left": [54,54,54],
         "mid": [70,70,70],
         "right": [92,90,90]
      },
      {
         "left": [79,61,52],
         "mid": [107,88,79],
         "right": [136,114,103]
      },
      {
         "left": [120,117,114],
         "mid": [190,181,181],
         "right": [230,217,217]
      },
      {
         "left": [143,121,88],
         "mid": [251,204,141],
         "right": [255,227,189]
      },
      {
         "left": [107,21,10],
         "mid": [194,52,33],
         "right": [247,107,88]
      },
      {
         "left": [158,118,5],
         "mid": [230,173,8],
         "right": [255,222,130]
      },
      {
         "left": [70,102,19],
         "mid": [139,200,40],
         "right": [215,255,152]
      },
      {
         "left": [20,66,168],
         "mid": [38,96,227],
         "right": [176,200,252]
      },
      {
         "left": [67,23,122],
         "mid": [111,30,210],
         "right": [188,141,244]
      },
      {
         "left": [133,34,67],
         "mid": [223,61,114],
         "right": [255,161,192]
      }
   ],
   "labret_color": [
      {
         "left": [54,54,54],
         "mid": [70,70,70],
         "right": [92,90,90]
      },
      {
         "left": [79,61,52],
         "mid": [100,80,63],
         "right": [136,114,103]
      },
      {
         "left": [91,77,49],
         "mid": [122,98,49],
         "right": [177,156,113]
      },
      {
         "left": [102,55,36],
         "mid": [142,63,47],
         "right": [205,116,90]
      },
      {
         "left": [143,121,88],
         "mid": [251,204,141],
         "right": [255,227,189]
      },
      {
         "left": [142,131,119],
         "mid": [193,180,171],
         "right": [255,238,226]
      },
      {
         "left": [120,117,114],
         "mid": [190,181,181],
         "right": [230,217,217]
      },
      {
         "left": [134,17,0],
         "mid": [203,40,19],
         "right": [232,80,61]
      },
      {
         "left": [169,61,9],
         "mid": [231,104,42],
         "right": [254,147,74]
      },
      {
         "left": [255,207,1],
         "mid": [255,222,90],
         "right": [255,238,114]
      },
      {
         "left": [102,135,49],
         "mid": [136,174,75],
         "right": [155,191,97]
      },
      {
         "left": [45,72,131],
         "mid": [75,111,192],
         "right": [107,142,221]
      },
      {
         "left": [93,59,130],
         "mid": [133,97,177],
         "right": [185,135,197]
      },
      {
         "left": [152,52,70],
         "mid": [203,66,90],
         "right": [198,147,151]
      }
   ]
}